10 1
   0    0 10093    0 9389 14560    0 4487 4301    0 
   0    0 12542    0    0 12528 14983 6624 9526    0 
10093 12542    0    0 11970 2815    0 8788 12589    0 
   0    0    0    0    0    0 1591    0    0 6793 
9389    0 11970    0    0    0    0   34    0 13291 
14560 12528 2815    0    0    0 9472    0    0    0 
   0 14983    0 1591    0 9472    0 8512 12446    0 
4487 6624 8788    0   34    0 8512    0    0    0 
4301 9526 12589    0    0    0 12446    0    0 8469 
   0    0    0 6793 13291    0    0    0 8469    0 
